{
  "items":[{
    "@context": "https://schema.org",
    "url":"https://nachtlicht.chaotikum.org/",
    "@type": "WebPage",
    "learningResourceType": "WebPage",
    "name": "Bausatz Nachtlicht zum Löten lernen",
    "license": "https://creativecommons.org/licenses/by/4.0/",
    "description": "Das Nachtlicht ist ein Bausatz zum Löten lernen. Über einen Fotowiderstand werden zwei LEDs eingeschaltet, wenn es dunkel wird."
  }]
}
